<?xml version="1.0" encoding="utf-8"?>
<!-- Generator: Adobe Illustrator 19.2.1, SVG Export Plug-In . SVG Version: 6.00 Build 0)  -->
<svg version="1.1" id="Layer_1" xmlns="http://www.w3.org/2000/svg" xmlns:xlink="http://www.w3.org/1999/xlink" x="0px" y="0px"
	 viewBox="0 0 7.3 7.3" style="enable-background:new 0 0 7.3 7.3;" xml:space="preserve">
<style type="text/css">
	.st0{fill:#FFFFFF;}
</style>
<g>
	<path class="st0" d="M3.7,0C1.7,0,0,1.7,0,3.7s1.7,3.7,3.7,3.7s3.7-1.7,3.7-3.7C7.3,1.7,5.7,0,3.7,0L3.7,0z M5.1,2.9
		C5.1,2.9,5.1,3,5.1,2.9C5.1,4,4.4,5.1,3,5.1C2.6,5.1,2.2,5,1.9,4.8c0.1,0,0.1,0,0.2,0c0.3,0,0.7-0.1,0.9-0.3C2.7,4.5,2.4,4.3,2.3,4
		h0.1c0.1,0,0.1,0,0.2,0C2.3,3.9,2,3.6,2,3.2l0,0c0.1,0,0.2,0.1,0.3,0.1C2.2,3.2,2,2.9,2,2.7c0-0.1,0-0.3,0.1-0.4
		C2.5,2.8,3,3.1,3.7,3.1c0,0,0-0.1,0-0.2c0-0.4,0.3-0.8,0.8-0.8c0.2,0,0.4,0.1,0.6,0.2c0.2,0,0.3-0.1,0.5-0.2c0,0.2-0.2,0.3-0.3,0.4
		c0.2,0,0.3-0.1,0.4-0.1C5.4,2.7,5.3,2.8,5.1,2.9z"/>
</g>
</svg>
